{
  "response": {
    "page": 1,
    "total_results": 10000,
    "total_pages": 500,
    "results": [
      {
        "popularity": 1888.9,
        "vote_count": 1524,
        "video": false,
        "poster_path": "/aKx1ARwG55zZ0GpRvU2WrGrCG9o.jpg",
        "id": 337401,
        "adult": false,
        "backdrop_path": "/zzWGRw277MNoCs3zhyG3YmYQsXv.jpg",
        "original_language": "en",
        "original_title": "Mulan",
        "genre_ids": [
          28,
          12,
          18,
          14,
          10752
        ],
        "title": "Mulan",
        "vote_average": 7.6,
        "overview": "When the Emperor of China issues a decree that one man per family must serve in the Imperial Chinese Army to defend the country from Huns, Hua Mulan, the eldest daughter of an honored warrior, steps in to take the place of her ailing father. She is spirited, determined and quick on her feet. Disguised as a man by the name of Hua Jun, she is tested every step of the way and must harness her innermost strength and embrace her true potential.",
        "release_date": "2020-09-10"
      },
      {
        "popularity": 1072.978,
        "vote_count": 37,
        "video": false,
        "poster_path": "/ugZW8ocsrfgI95pnQ7wrmKDxIe.jpg",
        "id": 724989,
        "adult": false,
        "backdrop_path": "/86L8wqGMDbwURPni2t7FQ0nDjsH.jpg",
        "original_language": "en",
        "original_title": "Hard Kill",
        "genre_ids": [
          28,
          53
        ],
        "title": "Hard Kill",
        "vote_average": 5.3,
        "overview": "The work of billionaire tech CEO Donovan Chalmers is so valuable that he hires mercenaries to protect it, and a terrorist group kidnaps his daughter just to get it.",
        "release_date": "2020-08-25"
      },
      {
        "popularity": 991.157,
        "vote_count": 53,
        "video": false,
        "poster_path": "/9Rj8l6gElLpRL7Kj17iZhrT5Zuw.jpg",
        "id": 734309,
        "adult": false,
        "backdrop_path": "/7fvdg211A2L0mHddvzyArRuRalp.jpg",
        "original_language": "en",
        "original_title": "Santana",
        "genre_ids": [
          28
        ],
        "title": "Santana",
        "vote_average": 5.8,
        "overview": "Two brothers — one a narcotics agent and the other a general — finally discover the identity of the drug lord who murdered their parents decades ago. They may kill each other before capturing the bad guys.",
        "release_date": "2020-08-28"
      },
      {
        "popularity": 1331.614,
        "vote_count": 0,
        "video": false,
        "poster_path": "/6CoRTJTmijhBLJTUNoVSUNxZMEI.jpg",
        "id": 694919,
        "adult": false,
        "backdrop_path": "/pq0JSpwyT2URytdFG0euztQPAyR.jpg",
        "original_language": "en",
        "original_title": "Money Plane",
        "genre_ids": [
          28
        ],
        "title": "Money Plane",
        "vote_average": 0,
        "overview": "A professional thief with $40 million in debt and his family's life on the line must commit one final heist - rob a futuristic airborne casino filled with the world's most dangerous criminals.",
        "release_date": "2020-09-29"
      },
      {
        "popularity": 892.034,
        "vote_count": 135,
        "video": false,
        "poster_path": "/sMO1v5TUf8GOJHbJieDXsgWT2Ud.jpg",
        "id": 438396,
        "adult": false,
        "backdrop_path": "/qGZe9qTuydxyJYQ60XDtEckzLR8.jpg",
        "original_language": "es",
        "original_title": "Orígenes secretos",
        "genre_ids": [
          18,
          53
        ],
        "title": "Unknown Origins",
        "vote_average": 6.3,
        "overview": "In Madrid, Spain, a mysterious serial killer ruthlessly murders his victims by recreating the first appearance of several comic book superheroes. Cosme, a veteran police inspector who is about to retire, works on the case along with the tormented inspector David Valentín and his own son Jorge Elías, a nerdy young man who owns a comic book store.",
        "release_date": "2020-08-28"
      },
      {
        "popularity": 897.738,
        "vote_count": 201,
        "video": false,
        "poster_path": "/uOw5JD8IlD546feZ6oxbIjvN66P.jpg",
        "id": 718444,
        "adult": false,
        "backdrop_path": "/t1EKm62XklvWRxq7Fz8Utl6Cq3I.jpg",
        "original_language": "en",
        "original_title": "Rogue",
        "genre_ids": [
          28
        ],
        "title": "Rogue",
        "vote_average": 5.9,
        "overview": "Battle-hardened O’Hara leads a lively mercenary team of soldiers on a daring mission: rescue hostages from their captors in remote Africa. But as the mission goes awry and the team is stranded, O’Hara’s squad must face a bloody, brutal encounter with a gang of rebels.",
        "release_date": "2020-08-20"
      },
      {
        "popularity": 787.24,
        "vote_count": 433,
        "video": false,
        "poster_path": "/sy6DvAu72kjoseZEjocnm2ZZ09i.jpg",
        "id": 581392,
        "adult": false,
        "backdrop_path": "/gEjNlhZhyHeto6Fy5wWy5Uk3A9D.jpg",
        "original_language": "ko",
        "original_title": "반도",
        "genre_ids": [
          28,
          27,
          53
        ],
        "title": "Peninsula",
        "vote_average": 7.2,
        "overview": "A soldier and his team battle hordes of post-apocalyptic zombies in the wastelands of the Korean Peninsula.",
        "release_date": "2020-07-15"
      },
      {
        "popularity": 640.876,
        "vote_count": 1196,
        "video": false,
        "poster_path": "/TnOeov4w0sTtV2gqICqIxVi74V.jpg",
        "id": 605116,
        "adult": false,
        "backdrop_path": "/qVygtf2vU15L2yKS4Ke44U4oMdD.jpg",
        "original_language": "en",
        "original_title": "Project Power",
        "genre_ids": [
          28,
          80,
          878
        ],
        "title": "Project Power",
        "vote_average": 6.7,
        "overview": "An ex-soldier, a teen and a cop collide in New Orleans as they hunt for the source behind a dangerous new pill that grants users temporary superpowers.",
        "release_date": "2020-08-14"
      },
      {
        "popularity": 559.104,
        "vote_count": 62,
        "video": false,
        "poster_path": "/n6hptKS7Y0ZjkYwbqKOK3jz9XAC.jpg",
        "id": 594328,
        "adult": false,
        "backdrop_path": "/lkeBhXGJFRlhI7cBWn8LQQAdZqK.jpg",
        "original_language": "en",
        "original_title": "Phineas and Ferb  The Movie Candace Against the Universe",
        "genre_ids": [
          16,
          35,
          10402,
          878,
          10751,
          10770
        ],
        "title": "Phineas and Ferb  The Movie Candace Against the Universe",
        "vote_average": 7,
        "overview": "Phineas and Ferb travel across the galaxy to rescue their older sister Candace, who has been abducted by aliens and taken to a utopia in a far-off planet, free of her pesky little brothers.",
        "release_date": "2020-08-28"
      },
      {
        "popularity": 496.945,
        "vote_count": 74,
        "video": false,
        "poster_path": "/i4kPwXPlM1iy8Jf3S1uuLuwqQAV.jpg",
        "id": 721452,
        "adult": false,
        "backdrop_path": "/riDrpqQtZpXGeiJdlmfcwwPH7nN.jpg",
        "original_language": "en",
        "original_title": "One Night in Bangkok",
        "genre_ids": [
          28,
          53
        ],
        "title": "One Night in Bangkok",
        "vote_average": 7.1,
        "overview": "A hit man named Kai flies into Bangkok, gets a gun, and orders a cab. He offers a professional female driver big money to be his all-night driver. But when she realizes Kai is committing brutal murders at each stop, it's too late to walk away. Meanwhile, an offbeat police detective races to decode the string of slayings before more blood is spilled.",
        "release_date": "2020-08-25"
      },
      {
        "popularity": 542.774,
        "vote_count": 260,
        "video": false,
        "poster_path": "/kiX7UYfOpYrMFSAGbI6j1pFkLzQ.jpg",
        "id": 613504,
        "adult": false,
        "backdrop_path": "/r5srC0cqU36n38azFnCyReEksiR.jpg",
        "original_language": "en",
        "original_title": "After We Collided",
        "genre_ids": [
          18,
          10749
        ],
        "title": "After We Collided",
        "vote_average": 6.9,
        "overview": "Tessa finds herself struggling with her complicated relationship with Hardin; she faces a dilemma that could change their lives forever.",
        "release_date": "2020-09-02"
      },
      {
        "popularity": 482.126,
        "vote_count": 268,
        "video": false,
        "poster_path": "/uGhQ2ZGBpzCj6wC5jUrybsZuPTI.jpg",
        "id": 539885,
        "adult": false,
        "backdrop_path": "/dbOqWLNWg1Xphshyus0UMSN8fFP.jpg",
        "original_language": "en",
        "original_title": "Ava",
        "genre_ids": [
          28,
          80,
          18,
          53
        ],
        "title": "Ava",
        "vote_average": 5.9,
        "overview": "A black ops assassin is forced to fight for her own survival after a job goes dangerously wrong.",
        "release_date": "2020-08-06"
      },
      {
        "popularity": 463.822,
        "vote_count": 74,
        "video": false,
        "poster_path": "/eDnHgozW8vfOaLHzfpHluf1GZCW.jpg",
        "id": 606234,
        "adult": false,
        "backdrop_path": "/u9YEh2xVAPVTKoaMNlB5tH6pXkm.jpg",
        "original_language": "en",
        "original_title": "Archive",
        "genre_ids": [
          878
        ],
        "title": "Archive",
        "vote_average": 6,
        "overview": "2038: George Almore is working on a true human-equivalent AI, and his latest prototype is almost ready. This sensitive phase is also the riskiest as he has a goal that must be hidden at all costs—being reunited with his dead wife.",
        "release_date": "2020-08-13"
      },
      {
        "popularity": 396.097,
        "vote_count": 103,
        "video": false,
        "poster_path": "/lv3RonWge4GlC9ymNzC0oWpFCfv.jpg",
        "id": 611395,
        "adult": false,
        "backdrop_path": "/qXACJOuyklS0BpvO8ALLkkrsv7W.jpg",
        "original_language": "zh",
        "original_title": "征途",
        "genre_ids": [
          28,
          12,
          14
        ],
        "title": "Double World",
        "vote_average": 6.9,
        "overview": "Keen to bring honor to his clan, young villager Dong Yilong embarks on a perilous journey to compete in a tournament that selects warriors for battle.",
        "release_date": "2020-07-24"
      },
      {
        "popularity": 378.266,
        "vote_count": 83,
        "video": false,
        "poster_path": "/sDi6wKgECUjDug2gn4uODSqZ3yC.jpg",
        "id": 632618,
        "adult": false,
        "backdrop_path": "/cVdYaAQmd5DZNdo0KFJruz7JpUs.jpg",
        "original_language": "es",
        "original_title": "Crímenes de familia",
        "genre_ids": [
          80,
          18,
          53
        ],
        "title": "The Crimes That Bind",
        "vote_average": 6.9,
        "overview": "When her son is accused of raping and trying to murder his ex-wife, Alicia embarks on a journey that will change her life forever.",
        "release_date": "2020-08-20"
      },
      {
        "popularity": 389.75,
        "vote_count": 141,
        "video": false,
        "poster_path": "/aVbqhqYtlxwEGihTEhewZAgDOCX.jpg",
        "id": 489326,
        "adult": false,
        "backdrop_path": "/dFB6Tiy3z2xRLbnEUB5ocApT5xG.jpg",
        "original_language": "en",
        "original_title": "Mortal",
        "genre_ids": [
          28,
          14,
          53
        ],
        "title": "Mortal",
        "vote_average": 6.8,
        "overview": "A young boy must discover the origins of his extraordinary powers before he is captured by authorities hell-bent on condemning him for an accidental murder.",
        "release_date": "2020-02-28"
      },
      {
        "popularity": 359.604,
        "vote_count": 391,
        "video": false,
        "poster_path": "/kPzcvxBwt7kEISB9O4jJEuBn72t.jpg",
        "id": 677638,
        "adult": false,
        "backdrop_path": "/pO1SnM5a1fEsYrFaVZW78Wb0zRJ.jpg",
        "original_language": "en",
        "original_title": "We Bare Bears: The Movie",
        "genre_ids": [
          12,
          16,
          35,
          10751
        ],
        "title": "We Bare Bears: The Movie",
        "vote_average": 7.8,
        "overview": "When Grizz, Panda, and Ice Bear's love of food trucks and viral videos went out of hand, it catches the attention of Agent Trout from the National Wildlife Control, who pledges to restore the “natural order” by separating them forever. Chased away from their home, the Bears embark on an epic road trip as they seek refuge in Canada, with their journey being filled with new friends, perilous obstacles, and huge parties. The risky journey also forces the Bears to face how they first met and became brothers, in order to keep their family bond from splitting apart.",
        "release_date": "2020-06-30"
      },
      {
        "popularity": 355.833,
        "vote_count": 84,
        "video": false,
        "poster_path": "/hTFs6T2k0kdQHFcC4gisT0UtNX8.jpg",
        "id": 680028,
        "adult": false,
        "backdrop_path": "/kmxnUYcisJDED8oNNIRd9QwWYYP.jpg",
        "original_language": "en",
        "original_title": "Centigrade",
        "genre_ids": [
          18,
          53
        ],
        "title": "Centigrade",
        "vote_average": 7.1,
        "overview": "A young American couple travel to the arctic mountains of Norway. After pulling over during a snowstorm, they wake up trapped in their SUV, buried underneath layers of snow and ice.",
        "release_date": "2020-08-28"
      },
      {
        "popularity": 355.71,
        "vote_count": 8,
        "video": false,
        "poster_path": "/w6e0XZreiyW4mGlLRHEG8ipff7b.jpg",
        "id": 722603,
        "adult": false,
        "backdrop_path": "/m7QpUAeI2xTCJyAVl9J9z5dBTSb.jpg",
        "original_language": "en",
        "original_title": "Battlefield 2025",
        "genre_ids": [
          28,
          27,
          878
        ],
        "title": "Battlefield 2025",
        "vote_average": 5.5,
        "overview": "Weekend campers, an escaped convict, young lovers and a police officer experience a night of terror when a hostile visitor from another world descends on a small Arizona town.",
        "release_date": "2020-07-07"
      },
      {
        "popularity": 368.237,
        "vote_count": 30,
        "video": false,
        "poster_path": "/q2lkJf1TAjImTHCEO7XvbqPtnPb.jpg",
        "id": 703134,
        "adult": false,
        "backdrop_path": "/j57oUw8LIYvjOl0zs3A1A1UqwKH.jpg",
        "original_language": "en",
        "original_title": "Infamous",
        "genre_ids": [
          80,
          18,
          53
        ],
        "title": "Infamous",
        "vote_average": 5.3,
        "overview": "Two young lovers rob their way across the southland, posting their exploits to social media, and gaining fame and followers as a result.",
        "release_date": "2020-06-12"
      }
    ]
  }
}
